…
    Parsed with column specification:
    cols(
      ActivityID = col_double()
    )
    


```R
print(y_test)
```

    # A tibble: 2,947 x 1
       ActivityID
            <dbl>
     1          5
     2          5
     3          5
     4          5
     5          5
     6          5
     7          5
     8          5
     9          5
    10          5
    # ... with 2,937 more rows


```R
test_activities<-left_join(y_test,activity_labels)
```

    Joining, by = "ActivityID"
    


```R
print(test_activities)
```

    # A tibble: 2,947 x 2
       ActivityID ActivityLabel
            <dbl> <chr>        
     1          5 Standing     
     2          5 Standing     
     3          5 Standing     
     4          5 Standing     
     5          5 Standing     
     6          5 Standing     
     7          5 Standing     
     8          5 Standing     
     9          5 Standing     
    10          5 Standing     
    # ... with 2,937 more rows
…
    Parsed with column specification:
    cols(
      FeatureID = col_double(),
      FeatureLabel = col_character()
    )
    


```R
print(features)
```

    # A tibble: 561 x 2
       FeatureID FeatureLabel     
           <dbl> <chr>            
     1         1 tBodyAcc-mean()-X
     2         2 tBodyAcc-mean()-Y
     3         3 tBodyAcc-mean()-Z
     4         4 tBodyAcc-std()-X 
     5         5 tBodyAcc-std()-Y 
     6         6 tBodyAcc-std()-Z 
     7         7 tBodyAcc-mad()-X 
     8         8 tBodyAcc-mad()-Y 
     9         9 tBodyAcc-mad()-Z 
    10        10 tBodyAcc-max()-X 
    # ... with 551 more rows
…
For example, we need to select *fBodyBodyGyroMag-mean()* but not *fBodyBodyGyroMag-meanFreq()*

_grepl_(grep logical) will return TRUE whenever the RegEx `*(mean|std)[(][)]*` is satisfied. The rows are then filtered based on that.


```R
f_MeanStd<-filter(features,grepl("*(mean|std)[(][)]*",FeatureLabel))
```


```R
print(f_MeanStd)
```

    # A tibble: 66 x 2
       FeatureID FeatureLabel        
           <dbl> <chr>               
     1         1 tBodyAcc-mean()-X   
     2         2 tBodyAcc-mean()-Y   
     3         3 tBodyAcc-mean()-Z   
     4         4 tBodyAcc-std()-X    
     5         5 tBodyAcc-std()-Y    
     6         6 tBodyAcc-std()-Z    
     7        41 tGravityAcc-mean()-X
     8        42 tGravityAcc-mean()-Y
     9        43 tGravityAcc-mean()-Z
    10        44 tGravityAcc-std()-X 
    # ... with 56 more rows

There are 66 rows of features that are measurements of mean and standard deviation. However, the contain special characters that cannot be used as column names in R. 


```R
f_MeanStd$FeatureLabel <- str_replace_all(f_MeanStd$FeatureLabel,"mean[(][)]","Mean") %>% 
                            str_replace_all("std[(][)]","Std") %>% str_replace_all("-","")
```


```R
print(f_MeanStd)
```

    # A tibble: 66 x 2
       FeatureID FeatureLabel    
           <dbl> <chr>           
     1         1 tBodyAccMeanX   
     2         2 tBodyAccMeanY   
     3         3 tBodyAccMeanZ   
     4         4 tBodyAccStdX    
     5         5 tBodyAccStdY    
     6         6 tBodyAccStdZ    
     7        41 tGravityAccMeanX
     8        42 tGravityAccMeanY
     9        43 tGravityAccMeanZ
    10        44 tGravityAccStdX 
    # ... with 56 more rows
…
Only the required columns will be read and will be labelled according to *f_MeanStd* from step 2.


```R
test_MeanStd<-read_table(unz(data,file_structure[17,2]),col_types=col_types,col_names=f_MeanStd$FeatureLabel)
```


```R
print(test_MeanStd)
```

    # A tibble: 2,947 x 66
       tBodyAccMeanX tBodyAccMeanY tBodyAccMeanZ tBodyAccStdX tBodyAccStdY
               <dbl>         <dbl>         <dbl>        <dbl>        <dbl>
     1         0.257       -0.0233       -0.0147       -0.938       -0.920
     2         0.286       -0.0132       -0.119        -0.975       -0.967
     3         0.275       -0.0261       -0.118        -0.994       -0.970
     4         0.270       -0.0326       -0.118        -0.995       -0.973
     5         0.275       -0.0278       -0.130        -0.994       -0.967
     6         0.279       -0.0186       -0.114        -0.994       -0.970
     7         0.280       -0.0183       -0.104        -0.996       -0.976
     8         0.275       -0.0250       -0.117        -0.996       -0.982
     9         0.273       -0.0210       -0.114        -0.997       -0.976
    10         0.276       -0.0104       -0.0998       -0.998       -0.987
    # ... with 2,937 more rows, and 61 more variables: tBodyAccStdZ <dbl>,
    #   tGravityAccMeanX <dbl>, tGravityAccMeanY <dbl>, tGravityAccMeanZ <dbl>,
    #   tGravityAccStdX <dbl>, tGravityAccStdY <dbl>, tGravityAccStdZ <dbl>,
    #   tBodyAccJerkMeanX <dbl>, tBodyAccJerkMeanY <dbl>, tBodyAccJerkMeanZ <dbl>,
    #   tBodyAccJerkStdX <dbl>, tBodyAccJerkStdY <dbl>, tBodyAccJerkStdZ <dbl>,
    #   tBodyGyroMeanX <dbl>, tBodyGyroMeanY <dbl>, tBodyGyroMeanZ <dbl>,
    #   tBodyGyroStdX <dbl>, tBodyGyroStdY <dbl>, tBodyGyroStdZ <dbl>,
    #   tBodyGyroJerkMeanX <dbl>, tBodyGyroJerkMeanY <dbl>,
    #   tBodyGyroJerkMeanZ <dbl>, tBodyGyroJerkStdX <dbl>, tBodyGyroJerkStdY <dbl>,
…
    Parsed with column specification:
    cols(
      SubjectID = col_double()
    )
    


```R
print(subject_test)
```

    # A tibble: 2,947 x 1
       SubjectID
           <dbl>
     1         2
     2         2
     3         2
     4         2
     5         2
     6         2
     7         2
     8         2
     9         2
    10         2
    # ... with 2,937 more rows
    

The *test_set* is created by column binding **subjectID** from *subject_test*, **ActivityLabel** from *test_activities* and all columns from *test_MeanStd*.


```R
test_set<-bind_cols(subject_test,select(test_activities,ActivityLabel),test_MeanStd)
```


```R
print(test_set)
```

    # A tibble: 2,947 x 68
       SubjectID ActivityLabel tBodyAccMeanX tBodyAccMeanY tBodyAccMeanZ
           <dbl> <chr>                 <dbl>         <dbl>         <dbl>
     1         2 Standing              0.257       -0.0233       -0.0147
     2         2 Standing              0.286       -0.0132       -0.119 
     3         2 Standing              0.275       -0.0261       -0.118 
     4         2 Standing              0.270       -0.0326       -0.118 
     5         2 Standing              0.275       -0.0278       -0.130 
     6         2 Standing              0.279       -0.0186       -0.114 
     7         2 Standing              0.280       -0.0183       -0.104 
     8         2 Standing              0.275       -0.0250       -0.117 
     9         2 Standing              0.273       -0.0210       -0.114 
    10         2 Standing              0.276       -0.0104       -0.0998
    # ... with 2,937 more rows, and 63 more variables: tBodyAccStdX <dbl>,
    #   tBodyAccStdY <dbl>, tBodyAccStdZ <dbl>, tGravityAccMeanX <dbl>,
    #   tGravityAccMeanY <dbl>, tGravityAccMeanZ <dbl>, tGravityAccStdX <dbl>,
    #   tGravityAccStdY <dbl>, tGravityAccStdZ <dbl>, tBodyAccJerkMeanX <dbl>,
    #   tBodyAccJerkMeanY <dbl>, tBodyAccJerkMeanZ <dbl>, tBodyAccJerkStdX <dbl>,
    #   tBodyAccJerkStdY <dbl>, tBodyAccJerkStdZ <dbl>, tBodyGyroMeanX <dbl>,
    #   tBodyGyroMeanY <dbl>, tBodyGyroMeanZ <dbl>, tBodyGyroStdX <dbl>,
    #   tBodyGyroStdY <dbl>, tBodyGyroStdZ <dbl>, tBodyGyroJerkMeanX <dbl>,
    #   tBodyGyroJerkMeanY <dbl>, tBodyGyroJerkMeanZ <dbl>,
…
    Parsed with column specification:
    cols(
      ActivityID = col_double()
    )
    


```R
print(y_train)
```

    # A tibble: 7,352 x 1
       ActivityID
            <dbl>
     1          5
     2          5
     3          5
     4          5
     5          5
     6          5
     7          5
     8          5
     9          5
    10          5
    # ... with 7,342 more rows


```R
train_activities<-left_join(y_train,activity_labels)
```

    Joining, by = "ActivityID"
    


```R
print(train_activities)
```

    # A tibble: 7,352 x 2
       ActivityID ActivityLabel
            <dbl> <chr>        
     1          5 Standing     
     2          5 Standing     
     3          5 Standing     
     4          5 Standing     
     5          5 Standing     
     6          5 Standing     
     7          5 Standing     
     8          5 Standing     
     9          5 Standing     
    10          5 Standing     
    # ... with 7,342 more rows
    


```R
train_MeanStd<-read_table(unz(data,file_structure[31,2]),col_types=col_types,col_names=f_MeanStd$FeatureLabel)
```


```R
print(train_MeanStd)
```

    # A tibble: 7,352 x 66
       tBodyAccMeanX tBodyAccMeanY tBodyAccMeanZ tBodyAccStdX tBodyAccStdY
               <dbl>         <dbl>         <dbl>        <dbl>        <dbl>
     1         0.289      -0.0203         -0.133       -0.995       -0.983
     2         0.278      -0.0164         -0.124       -0.998       -0.975
     3         0.280      -0.0195         -0.113       -0.995       -0.967
     4         0.279      -0.0262         -0.123       -0.996       -0.983
     5         0.277      -0.0166         -0.115       -0.998       -0.981
     6         0.277      -0.0101         -0.105       -0.997       -0.990
     7         0.279      -0.0196         -0.110       -0.997       -0.967
     8         0.277      -0.0305         -0.125       -0.997       -0.967
     9         0.277      -0.0218         -0.121       -0.997       -0.961
    10         0.281      -0.00996        -0.106       -0.995       -0.973
    # ... with 7,342 more rows, and 61 more variables: tBodyAccStdZ <dbl>,
    #   tGravityAccMeanX <dbl>, tGravityAccMeanY <dbl>, tGravityAccMeanZ <dbl>,
    #   tGravityAccStdX <dbl>, tGravityAccStdY <dbl>, tGravityAccStdZ <dbl>,
    #   tBodyAccJerkMeanX <dbl>, tBodyAccJerkMeanY <dbl>, tBodyAccJerkMeanZ <dbl>,
    #   tBodyAccJerkStdX <dbl>, tBodyAccJerkStdY <dbl>, tBodyAccJerkStdZ <dbl>,
    #   tBodyGyroMeanX <dbl>, tBodyGyroMeanY <dbl>, tBodyGyroMeanZ <dbl>,
    #   tBodyGyroStdX <dbl>, tBodyGyroStdY <dbl>, tBodyGyroStdZ <dbl>,
    #   tBodyGyroJerkMeanX <dbl>, tBodyGyroJerkMeanY <dbl>,
    #   tBodyGyroJerkMeanZ <dbl>, tBodyGyroJerkStdX <dbl>, tBodyGyroJerkStdY <dbl>,
…
    Parsed with column specification:
    cols(
      SubjectID = col_double()
    )
    


```R
print(subject_train)
```

    # A tibble: 7,352 x 1
       SubjectID
           <dbl>
     1         1
     2         1
     3         1
     4         1
     5         1
     6         1
     7         1
     8         1
     9         1
    10         1
    # ... with 7,342 more rows
    


```R
train_set<-bind_cols(subject_train,select(train_activities,ActivityLabel),train_MeanStd)
```


```R
print(train_set)
```

    # A tibble: 7,352 x 68
       SubjectID ActivityLabel tBodyAccMeanX tBodyAccMeanY tBodyAccMeanZ
           <dbl> <chr>                 <dbl>         <dbl>         <dbl>
     1         1 Standing              0.289      -0.0203         -0.133
     2         1 Standing              0.278      -0.0164         -0.124
     3         1 Standing              0.280      -0.0195         -0.113
     4         1 Standing              0.279      -0.0262         -0.123
     5         1 Standing              0.277      -0.0166         -0.115
     6         1 Standing              0.277      -0.0101         -0.105
     7         1 Standing              0.279      -0.0196         -0.110
     8         1 Standing              0.277      -0.0305         -0.125
     9         1 Standing              0.277      -0.0218         -0.121
    10         1 Standing              0.281      -0.00996        -0.106
    # ... with 7,342 more rows, and 63 more variables: tBodyAccStdX <dbl>,
    #   tBodyAccStdY <dbl>, tBodyAccStdZ <dbl>, tGravityAccMeanX <dbl>,
    #   tGravityAccMeanY <dbl>, tGravityAccMeanZ <dbl>, tGravityAccStdX <dbl>,
    #   tGravityAccStdY <dbl>, tGravityAccStdZ <dbl>, tBodyAccJerkMeanX <dbl>,
    #   tBodyAccJerkMeanY <dbl>, tBodyAccJerkMeanZ <dbl>, tBodyAccJerkStdX <dbl>,
    #   tBodyAccJerkStdY <dbl>, tBodyAccJerkStdZ <dbl>, tBodyGyroMeanX <dbl>,
    #   tBodyGyroMeanY <dbl>, tBodyGyroMeanZ <dbl>, tBodyGyroStdX <dbl>,
    #   tBodyGyroStdY <dbl>, tBodyGyroStdZ <dbl>, tBodyGyroJerkMeanX <dbl>,
    #   tBodyGyroJerkMeanY <dbl>, tBodyGyroJerkMeanZ <dbl>,
…
```R
tidy_dataset$SubjectID<-as.factor(tidy_dataset$SubjectID)
tidy_dataset$ActivityLabel<-as.factor(tidy_dataset$ActivityLabel)
```


```R
print(tidy_dataset)
```

    # A tibble: 10,299 x 68
       SubjectID ActivityLabel tBodyAccMeanX tBodyAccMeanY tBodyAccMeanZ
       <fct>     <fct>                 <dbl>         <dbl>         <dbl>
     1 1         Standing              0.289      -0.0203         -0.133
     2 1         Standing              0.278      -0.0164         -0.124
     3 1         Standing              0.280      -0.0195         -0.113
     4 1         Standing              0.279      -0.0262         -0.123
     5 1         Standing              0.277      -0.0166         -0.115
     6 1         Standing              0.277      -0.0101         -0.105
     7 1         Standing              0.279      -0.0196         -0.110
     8 1         Standing              0.277      -0.0305         -0.125
     9 1         Standing              0.277      -0.0218         -0.121
    10 1         Standing              0.281      -0.00996        -0.106
    # ... with 10,289 more rows, and 63 more variables: tBodyAccStdX <dbl>,
    #   tBodyAccStdY <dbl>, tBodyAccStdZ <dbl>, tGravityAccMeanX <dbl>,
    #   tGravityAccMeanY <dbl>, tGravityAccMeanZ <dbl>, tGravityAccStdX <dbl>,
    #   tGravityAccStdY <dbl>, tGravityAccStdZ <dbl>, tBodyAccJerkMeanX <dbl>,
    #   tBodyAccJerkMeanY <dbl>, tBodyAccJerkMeanZ <dbl>, tBodyAccJerkStdX <dbl>,
    #   tBodyAccJerkStdY <dbl>, tBodyAccJerkStdZ <dbl>, tBodyGyroMeanX <dbl>,
    #   tBodyGyroMeanY <dbl>, tBodyGyroMeanZ <dbl>, tBodyGyroStdX <dbl>,
    #   tBodyGyroStdY <dbl>, tBodyGyroStdZ <dbl>, tBodyGyroJerkMeanX <dbl>,
    #   tBodyGyroJerkMeanY <dbl>, tBodyGyroJerkMeanZ <dbl>,
…
This can be achieved using one line of code with the help of pipes in dplyr.


```R
averages_dataset<-tidy_dataset %>% group_by(SubjectID,ActivityLabel) %>% summarise_all(mean) %>% 
                    rename_if(is.numeric, function(x) paste0("Avg",x))
```


```R
print(averages_dataset)
```

    # A tibble: 180 x 68
    # Groups:   SubjectID [30]
       SubjectID ActivityLabel AvgtBodyAccMeanX AvgtBodyAccMeanY AvgtBodyAccMeanZ
       <fct>     <fct>                    <dbl>            <dbl>            <dbl>
     1 1         Laying                   0.222         -0.0405           -0.113 
     2 1         Sitting                  0.261         -0.00131          -0.105 
     3 1         Standing                 0.279         -0.0161           -0.111 
     4 1         Walking                  0.277         -0.0174           -0.111 
     5 1         WalkingDowns~            0.289         -0.00992          -0.108 
     6 1         WalkingUpsta~            0.255         -0.0240           -0.0973
     7 2         Laying                   0.281         -0.0182           -0.107 
     8 2         Sitting                  0.277         -0.0157           -0.109 
     9 2         Standing                 0.278         -0.0184           -0.106 
    10 2         Walking                  0.276         -0.0186           -0.106 
    # ... with 170 more rows, and 63 more variables: AvgtBodyAccStdX <dbl>,
    #   AvgtBodyAccStdY <dbl>, AvgtBodyAccStdZ <dbl>, AvgtGravityAccMeanX <dbl>,
    #   AvgtGravityAccMeanY <dbl>, AvgtGravityAccMeanZ <dbl>,
    #   AvgtGravityAccStdX <dbl>, AvgtGravityAccStdY <dbl>,
    #   AvgtGravityAccStdZ <dbl>, AvgtBodyAccJerkMeanX <dbl>,
    #   AvgtBodyAccJerkMeanY <dbl>, AvgtBodyAccJerkMeanZ <dbl>,
    #   AvgtBodyAccJerkStdX <dbl>, AvgtBodyAccJerkStdY <dbl>,
    #   AvgtBodyAccJerkStdZ <dbl>, AvgtBodyGyroMeanX <dbl>,
    #   AvgtBodyGyroMeanY <dbl>, AvgtBodyGyroMeanZ <dbl>, AvgtBodyGyroStdX <dbl>,
…
